FEQ non abilitata
 L=200
 W=40
 tau=1.500000
 nu=0.333333
 soglia massa=0.00000000010000000000 							
 soglia velocità=0.00000000010000000000
 inizio inlet=67
 inizio outlet=132
 ampiezza in/out=3
 numero di step per iterazione=1000 							
 velocità in/out=0.000010
