FEQ non abilitata nelle boundaries
Forzante dissipativa non abilitata nelle boundaries
Forzante autoindotta non abilitata nelle boundaries
L=800
 W=200
 tau=1.500000
 nu=0.333333
 soglia massa=0.00000000010000000000 							
 soglia velocità=0.00000000010000000000
 inizio inlet=267
 inizio outlet=529
 ampiezza in/out=6
 numero di step per iterazione=1000 							
 velocità in/out=0.000010
 C_g_inv=0.000010
