FEQ abilitata
 L=500
 W=200
 tau=1.500000
 nu=0.333333
 soglia massa=0.00000000010000000000 							
 soglia velocità=0.00000000010000000000
 inizio inlet=167
 inizio outlet=329
 ampiezza in/out=6
 numero di step per iterazione=1000 							
 velocità in/out=0.000010
